"","x"
"1","Computers&Accessories"
"2","Electronics"
"3","MusicalInstruments"
"4","OfficeProducts"
"5","Home&Kitchen"
"6","HomeImprovement"
"7","Toys&Games"
"8","Car&Motorbike"
"9","Health&PersonalCare"
